13 13 13
37
5
9
28
1
27
5
1
37
26
17
2
4
27
21
10
17
5
21
41
30
2
11
43
29
31
42
30
35
27
17
48
36
21
19
36
6
24
16
43
40
13
7
28
39
42
18
4
26
33
48
18
21
14
7
4
32
48
30
49
9
43
24
28
50
37
2
25
18
26
22
8
28
49
43
48
7
33
9
43
28
43
37
8
13
19
28
46
13
19
36
29
36
3
19
12
14
2
48
25
30
34
34
14
42
21
25
37
13
40
28
30
8
21
49
14
7
21
16
12
3
27
1
1
29
43
48
12
31
15
36
17
43
5
4
3
44
44
48
40
44
41
46
6
18
9
9
42
44
41
44
41
17
19
4
35
3
7
24
29
19
12
3
18
14
48
20
22
33
11
27
11
6
48
17
1
25
13
46
50
10
6
25
9
13
32
16
16
15
2
41
46
24
44
37
36
6
5
2
39
14
43
19
3
20
47
4
2
46
14
22
2
25
12
16
32
10
31
17
39
9
50
34
37
11
18
34
9
8
41
1
39
21
21
2
22
5
19
14
21
35
27
3
2
13
7
30
28
37
49
37
13
36
20
3
31
4
39
11
12
10
30
24
29
7
5
8
26
13
16
30
46
19
34
23
38
5
13
29
30
41
35
8
35
17
9
28
15
20
2
31
2
31
12
13
18
10
32
24
50
22
37
1
23
6
14
17
13
11
12
17
21
37
32
5
39
10
17
39
6
10
37
14
43
15
46
15
16
48
40
45
41
4
12
5
47
5
12
7
47
22
4
7
40
35
28
41
42
29
45
13
50
48
6
16
33
22
34
34
24
15
49
42
17
6
44
47
42
34
27
40
41
13
22
19
19
14
50
34
44
25
32
5
9
35
14
48
16
39
5
3
49
35
22
16
6
5
42
23
11
31
10
33
9
5
39
44
12
40
5
49
26
34
14
30
20
46
45
36
31
19
14
37
10
3
8
2
26
5
46
14
34
18
28
18
1
29
44
49
40
43
40
11
31
42
11
8
9
33
14
33
24
8
28
20
13
4
46
13
41
2
2
2
48
30
27
35
47
8
5
38
27
50
33
4
41
7
1
40
32
3
22
42
13
5
38
35
3
28
39
50
9
4
32
21
34
19
7
38
3
7
2
4
23
31
45
41
44
24
45
4
5
28
33
32
39
25
40
1
43
48
19
21
31
2
42
27
38
30
14
3
34
1
39
27
42
50
48
41
30
38
8
22
20
42
49
25
14
28
32
20
8
26
3
41
18
18
38
3
8
24
20
17
41
44
49
29
44
18
39
21
9
16
15
27
22
6
39
41
36
2
40
46
5
35
8
5
37
1
36
35
1
27
13
7
14
41
29
21
18
16
9
2
37
24
49
37
14
10
16
6
40
35
22
34
20
10
43
32
50
35
30
27
29
44
25
9
3
18
37
28
10
34
5
9
7
13
40
41
3
38
20
18
35
26
19
13
13
38
5
8
31
3
37
45
16
25
45
26
44
41
33
5
50
17
5
9
2
20
45
39
50
21
30
20
34
50
16
9
36
9
7
17
6
32
35
25
28
42
32
45
18
17
18
37
20
15
22
48
7
46
15
25
25
14
4
30
21
22
48
15
18
50
21
48
45
10
11
32
39
24
27
48
17
25
24
5
2
39
7
34
19
19
46
17
40
28
6
25
34
38
5
32
47
41
41
49
3
30
32
40
47
4
4
10
34
30
43
20
29
10
3
29
15
14
25
40
21
49
9
15
3
7
7
16
18
43
33
12
24
23
32
26
33
29
30
6
39
48
50
18
10
18
16
14
14
38
48
21
21
50
12
15
6
20
1
6
46
44
9
30
22
5
44
34
13
37
15
42
43
12
35
31
50
28
38
22
47
14
28
10
41
25
18
7
26
18
37
19
17
41
41
33
5
36
5
10
28
11
4
41
32
18
11
50
48
1
14
33
36
11
9
24
4
8
6
4
16
21
27
28
2
34
14
35
11
43
46
11
18
35
47
16
4
3
9
23
8
2
25
31
25
28
44
21
21
3
24
9
39
43
18
10
43
6
16
48
36
16
37
45
12
31
45
34
38
12
39
35
33
37
33
11
33
14
9
17
23
25
20
44
29
8
17
11
4
42
2
47
50
24
33
42
43
10
31
41
17
33
42
44
4
50
4
10
46
37
2
20
4
25
23
39
49
36
38
16
9
4
39
19
31
31
16
6
18
4
6
12
12
22
33
20
46
34
45
23
14
9
16
1
1
32
25
36
45
22
16
1
43
39
29
16
10
23
45
11
31
14
34
14
13
47
21
2
32
28
50
33
8
33
13
46
19
29
23
30
36
48
39
43
36
37
31
6
9
27
10
17
25
34
5
31
5
43
38
37
33
49
31
23
34
2
10
44
16
3
29
25
44
3
8
38
17
5
2
16
47
1
12
21
4
19
34
3
26
3
10
29
10
32
3
23
8
16
43
48
29
11
28
4
22
20
35
22
17
14
13
35
6
41
39
20
19
30
35
41
44
50
10
19
14
29
48
42
44
19
26
24
4
3
31
25
6
46
18
30
8
49
15
24
43
11
28
9
29
13
10
9
41
32
40
48
28
24
35
42
14
49
19
25
2
44
18
30
10
34
27
37
15
42
50
31
48
35
31
7
13
38
12
2
22
19
31
24
48
42
18
46
13
8
15
12
2
13
33
19
4
10
1
21
23
49
21
7
47
31
17
2
47
13
32
46
17
23
14
45
12
12
39
29
22
7
24
6
8
2
20
17
1
36
20
38
30
15
15
39
20
19
29
8
13
50
43
19
18
5
48
4
27
27
44
35
35
35
28
46
16
33
9
45
14
25
21
38
26
42
8
34
2
17
14
15
25
17
44
10
13
44
31
36
24
36
46
41
34
39
9
13
18
19
50
5
40
3
1
38
37
29
35
24
36
36
32
2
40
35
8
3
7
27
9
8
18
13
33
16
37
32
4
2
48
31
19
44
8
37
5
49
45
29
20
49
29
46
28
20
8
35
30
49
43
35
1
15
29
11
22
37
39
9
30
27
39
28
20
13
48
4
1
19
30
6
1
17
15
49
8
37
40
30
25
16
20
4
45
38
10
24
14
39
48
19
33
38
41
29
35
50
4
19
24
16
29
10
40
29
39
11
18
13
18
42
2
48
36
40
40
43
20
23
26
9
22
26
47
31
38
29
22
31
6
35
23
16
18
41
8
7
14
24
50
11
43
8
17
28
38
44
23
1
22
13
3
8
33
8
6
5
17
15
49
7
45
41
31
17
1
10
2
2
47
6
10
46
38
28
18
36
28
30
34
15
42
22
25
11
21
41
35
39
16
1
40
6
41
27
49
39
5
33
14
27
48
43
23
15
18
22
25
41
10
46
23
32
1
40
45
16
3
17
47
14
11
43
35
42
48
43
8
21
36
7
35
9
11
46
42
38
11
13
34
26
7
43
7
47
32
44
31
15
3
7
13
17
23
13
7
4
6
5
20
28
4
16
34
46
21
33
49
9
25
13
46
45
21
38
9
4
15
44
39
6
26
24
41
42
26
21
28
20
38
25
39
2
1
25
18
32
3
24
2
41
16
49
25
17
33
11
37
7
24
6
25
45
5
22
39
40
27
13
48
23
35
1
5
19
45
1
27
7
34
46
36
4
41
45
13
49
13
9
43
17
9
28
28
41
12
8
38
47
19
29
33
45
50
10
36
32
31
7
40
37
28
11
4
34
34
14
43
48
20
49
33
29
11
40
30
29
46
50
3
11
35
22
29
49
19
15
2
43
38
46
40
37
6
18
25
43
46
31
42
20
50
7
21
45
11
14
9
32
28
50
2
42
28
12
13
6
30
22
3
47
35
38
11
10
47
37
37
6
49
15
6
13
19
49
16
44
32
23
17
7
14
25
14
14
50
23
15
30
9
38
50
44
28
12
13
11
21
38
49
11
32
45
29
18
36
46
20
1
23
31
32
39
29
1
14
45
13
19
27
10
20
27
16
24
45
17
6
35
17
1
33
45
4
37
7
14
42
35
32
7
9
36
30
13
2
6
50
33
19
24
35
22
6
21
36
41
2
15
39
13
21
50
14
38
34
40
43
12
5
50
29
35
22
2
19
8
1
13
33
6
10
20
13
45
35
48
47
6
23
10
17
23
28
38
36
48
38
6
7
42
16
27
4
37
35
35
48
19
27
40
25
28
2
12
39
28
47
40
43
33
25
31
49
5
10
17
24
34
28
27
36
26
29
11
24
4
4
47
37
18
19
18
36
1
19
50
30
13
35
44
18
44
41
16
40
46
34
45
14
7
37
27
5
3
1
8
37
21
29
9
35
33
14
27
39
10
41
17
31
7
15
38
24
2
3
27
40
6
15
3
49
26
17
10
10
11
27
16
31
19
26
11
45
44
40
38
12
48
25
32
45
31
31
23
25
3
38
22
37
16
32
34
42
47
37
9
37
47
18
25
43
40
36
32
42
6
38
9
34
46
1
27
36
34
1
13
48
4
8
6
12
11
38
13
27
17
12
2
27
9
29
19
29
17
22
12
10
43
40
12
50
22
14
23
12
7
50
27
48
31
21
25
18
26
3
15
17
10
16
5
18
41
5
34
21
24
27
10
42
50
49
36
41
18
8
31
40
21
21
8
41
43
19
24
47
2
17
31
45
32
23
36
45
36
32
38
38
11
41
23
33
45
37
22
12
6
15
34
17
22
19
43
32
34
26
32
48
6
39
15
22
27
38
50
44
17
12
46
20
4
10
10
38
47
1
45
24
31
18
22
24
19
44
45
26
13
7
45
35
35
41
10
5
22
26
5
2
33
36
41
43
12
23
13
16
17
11
14
7
24
4
36
30
26
10
39
50
36
23
26
44
4
2
37
37
28
16
16
9
16
45
26
41
40
26
28
5
17
30
44
20
7
20
10
43
15
19
32
30
22
46
22
50
15
35
50
43
36
35
24
26
2
26
16
